Still Alive -x : 1
Still Alive -x : 1
Still Alive -x : 1
Still Alive -x : 1
Still Alive -x : 1
Still Alive -x : 1
Still Alive -x : 1
Still Alive -x : 1
Still Alive -x : 1
Still Alive -x : 1
Still Alive -x : 1
Still Alive -x : 1
Still Alive -x : 1
Still Alive -x : 1
Still Alive -x : 1
Still Alive -x : 1
Still Alive -x : 1
Still Alive -x : 1
Still Alive -x : 1
Still Alive -x : 1
Still Alive -x : 1
Still Alive -x : 1
Still Alive -x : 1
Still Alive -x : 1
Still Alive -x : 1
Still Alive -x : 1
Type y/Y to exit.
dfdfdfdfdf
Still Alive -x : 1
Still Alive -x : 1
Still Alive -x : 1
Still Alive -x : 1
Still Alive -x : 1
Still Alive -x : 1
Still Alive -x : 1
Still Alive -x : 1
Still Alive -x : 1
Still Alive -x : 1
Still Alive -x : 1
Still Alive -x : 1
Still Alive -x : 1
Still Alive -x : 1
Still Alive -x : 1
Still Alive -x : 1
Still Alive -x : 1
Still Alive -x : 1
Still Alive -x : 1
Still Alive -x : 1
Still Alive -x : 1
Still Alive -x : 1
Still Alive -x : 1
Still Alive -x : 1
Still Alive -x : 1
Still Alive -x : 1
Still Alive -x : 1
Still Alive -x : 1
Still Alive -x : 1
Still Alive -x : 1
Still Alive -x : 1
Still Alive -x : 1
Still Alive -x : 1
Still Alive -x : 1
Still Alive -x : 1
Still Alive -x : 1
Still Alive -x : 1
Type y/Y to exit.
y

